{
	"info": {
		"_postman_id": "120ba3e4-aa71-4411-ab6e-0c4b659b3512",
		"name": "Test",
		"schema": "https://schema.getpostman.com/json/collection/v2.1.0/collection.json"
	},
	"item": [
		{
			"name": "get country climate info",
			"event": [
				{
					"listen": "test",
					"script": {
						"id": "650e8096-9084-4c1f-956e-0bab838b3bde",
						"exec": [
							"pm.test(\"Test1\", function () {",
							"    ",
							"    pm.response.to.have.status(200);",
							"    pm.response.to.have.jsonBody();",
							"    pm.expect(pm.response.responseTime).to.be.below(500);",
							"    ",
							"    ",
							"});"
						],
						"type": "text/javascript"
					}
				}
			],
			"request": {
				"auth": {
					"type": "noauth"
				},
				"method": "GET",
				"header": [],
				"url": {
					"raw": "{{baseUrl}}/country?countryID=200",
					"host": [
						"{{baseUrl}}"
					],
					"path": [
						"country"
					],
					"query": [
						{
							"key": "countryID",
							"value": "200",
							"description": "country to search for"
						}
					]
				}
			},
			"response": [
				{
					"name": "Get country climate info",
					"originalRequest": {
						"method": "GET",
						"header": [],
						"url": {
							"raw": "{{baseUrl}}/country?countryID=<string>",
							"host": [
								"{{baseUrl}}"
							],
							"path": [
								"country"
							],
							"query": [
								{
									"key": "countryID",
									"value": "<string>"
								}
							]
						}
					},
					"status": "OK",
					"code": 200,
					"_postman_previewlanguage": "json",
					"header": [
						{
							"key": "Content-Type",
							"value": "application/json"
						}
					],
					"cookie": [],
					"body": "{\n \"GDP\": \"<number>\",\n \"GDPCapita\": \"<number>\",\n \"GGE\": \"<number>\",\n \"HDI\": \"<number>\",\n \"avgLifespan\": \"<number>\",\n \"continent\": \"<string>\",\n \"countryID\": \"<integer>\",\n \"emissionsCapita\": \"<number>\",\n \"emmissionsGDP\": \"<number>\",\n \"hasSignedPCA\": \"<boolean>\",\n \"name\": \"<string>\",\n \"percentRenewable\": \"<number>\",\n \"population\": \"<integer>\"\n}"
				},
				{
					"name": "unexpected error",
					"originalRequest": {
						"method": "GET",
						"header": [],
						"url": {
							"raw": "{{baseUrl}}/country?countryID=<string>",
							"host": [
								"{{baseUrl}}"
							],
							"path": [
								"country"
							],
							"query": [
								{
									"key": "countryID",
									"value": "<string>"
								}
							]
						}
					},
					"status": "Internal Server Error",
					"code": 500,
					"_postman_previewlanguage": "json",
					"header": [
						{
							"key": "Content-Type",
							"value": "application/json"
						}
					],
					"cookie": [],
					"body": "{\n \"code\": \"<integer>\",\n \"message\": \"<string>\"\n}"
				}
			]
		},
		{
			"name": "get country climate info for all countries",
			"event": [
				{
					"listen": "test",
					"script": {
						"id": "45d1f72c-c4a6-4a73-84ef-f58f7cb8d61f",
						"exec": [
							"pm.test(\"Test1\", function () {",
							"    ",
							"    pm.response.to.have.status(200);",
							"    pm.response.to.have.jsonBody();",
							"    ",
							"    ",
							"    ",
							"});"
						],
						"type": "text/javascript"
					}
				}
			],
			"request": {
				"auth": {
					"type": "noauth"
				},
				"method": "GET",
				"header": [],
				"url": {
					"raw": "{{baseUrl}}/countries",
					"host": [
						"{{baseUrl}}"
					],
					"path": [
						"countries"
					]
				}
			},
			"response": [
				{
					"name": "array of JSON country climate object",
					"originalRequest": {
						"method": "GET",
						"header": [],
						"url": {
							"raw": "{{baseUrl}}/countries",
							"host": [
								"{{baseUrl}}"
							],
							"path": [
								"countries"
							]
						}
					},
					"status": "OK",
					"code": 200,
					"_postman_previewlanguage": "json",
					"header": [
						{
							"key": "Content-Type",
							"value": "application/json"
						}
					],
					"cookie": [],
					"body": "[\n {\n  \"GDP\": \"<number>\",\n  \"GDPCapita\": \"<number>\",\n  \"GGE\": \"<number>\",\n  \"HDI\": \"<number>\",\n  \"avgLifespan\": \"<number>\",\n  \"continent\": \"<string>\",\n  \"countryID\": \"<integer>\",\n  \"emissionsCapita\": \"<number>\",\n  \"emmissionsGDP\": \"<number>\",\n  \"hasSignedPCA\": \"<boolean>\",\n  \"name\": \"<string>\",\n  \"percentRenewable\": \"<number>\",\n  \"population\": \"<integer>\"\n },\n {\n  \"GDP\": \"<number>\",\n  \"GDPCapita\": \"<number>\",\n  \"GGE\": \"<number>\",\n  \"HDI\": \"<number>\",\n  \"avgLifespan\": \"<number>\",\n  \"continent\": \"<string>\",\n  \"countryID\": \"<integer>\",\n  \"emissionsCapita\": \"<number>\",\n  \"emmissionsGDP\": \"<number>\",\n  \"hasSignedPCA\": \"<boolean>\",\n  \"name\": \"<string>\",\n  \"percentRenewable\": \"<number>\",\n  \"population\": \"<integer>\"\n }\n]"
				},
				{
					"name": "unexpected error",
					"originalRequest": {
						"method": "GET",
						"header": [],
						"url": {
							"raw": "{{baseUrl}}/countries",
							"host": [
								"{{baseUrl}}"
							],
							"path": [
								"countries"
							]
						}
					},
					"status": "Internal Server Error",
					"code": 500,
					"_postman_previewlanguage": "json",
					"header": [
						{
							"key": "Content-Type",
							"value": "application/json"
						}
					],
					"cookie": [],
					"body": "{\n \"code\": \"<integer>\",\n \"message\": \"<string>\"\n}"
				}
			]
		},
		{
			"name": "get city climate info",
			"event": [
				{
					"listen": "test",
					"script": {
						"id": "f49435f9-05ad-4a4e-a0fd-e09546de9a9e",
						"exec": [
							"pm.test(\"Test1\", function () {",
							"    ",
							"    pm.response.to.have.status(200);",
							"    pm.response.to.have.jsonBody();",
							"    pm.expect(pm.response.responseTime).to.be.below(500);",
							"    ",
							"});"
						],
						"type": "text/javascript"
					}
				}
			],
			"request": {
				"auth": {
					"type": "noauth"
				},
				"method": "GET",
				"header": [],
				"url": {
					"raw": "{{baseUrl}}/city?cityID=0",
					"host": [
						"{{baseUrl}}"
					],
					"path": [
						"city"
					],
					"query": [
						{
							"key": "cityID",
							"value": "0"
						}
					]
				}
			},
			"response": [
				{
					"name": "unexpected error",
					"originalRequest": {
						"method": "GET",
						"header": [],
						"url": {
							"raw": "{{baseUrl}}/city?cityID=<string>",
							"host": [
								"{{baseUrl}}"
							],
							"path": [
								"city"
							],
							"query": [
								{
									"key": "cityID",
									"value": "<string>"
								}
							]
						}
					},
					"status": "Internal Server Error",
					"code": 500,
					"_postman_previewlanguage": "json",
					"header": [
						{
							"key": "Content-Type",
							"value": "application/json"
						}
					],
					"cookie": [],
					"body": "{\n \"code\": \"<integer>\",\n \"message\": \"<string>\"\n}"
				},
				{
					"name": "City climate info object",
					"originalRequest": {
						"method": "GET",
						"header": [],
						"url": {
							"raw": "{{baseUrl}}/city?cityID=<string>",
							"host": [
								"{{baseUrl}}"
							],
							"path": [
								"city"
							],
							"query": [
								{
									"key": "cityID",
									"value": "<string>"
								}
							]
						}
					},
					"status": "OK",
					"code": 200,
					"_postman_previewlanguage": "json",
					"header": [
						{
							"key": "Content-Type",
							"value": "application/json"
						}
					],
					"cookie": [],
					"body": "{\n \"cityID\": \"<string>\",\n \"name\": \"<string>\",\n \"AQI\": \"<integer>\",\n \"CO2_per_capita\": \"<float>\",\n \"GGE\": \"<float>\",\n \"climate_description\": \"<string>\",\n \"country\": \"<integer>\",\n \"elevation\": \"<float>\",\n \"isRisingSea\": \"<boolean>\",\n \"percentgreenness\": \"<float>\",\n \"pm25\": \"<float>\",\n \"population\": \"<integer>\",\n \"precipitation_2014_mm\": \"<float>\",\n \"total_builtup_area\": \"<float>\",\n \"un_development_group\": \"<string>\"\n}"
				}
			]
		},
		{
			"name": "get city climate info for all cities",
			"event": [
				{
					"listen": "test",
					"script": {
						"id": "d0da03a8-a4bc-404c-810e-74169559544c",
						"exec": [
							"pm.test(\"Test1\", function () {",
							"    ",
							"    pm.response.to.have.status(200);",
							"    pm.response.to.have.jsonBody();",
							"",
							"    ",
							"});"
						],
						"type": "text/javascript"
					}
				}
			],
			"request": {
				"auth": {
					"type": "noauth"
				},
				"method": "GET",
				"header": [],
				"url": {
					"raw": "{{baseUrl}}/cities",
					"host": [
						"{{baseUrl}}"
					],
					"path": [
						"cities"
					]
				}
			},
			"response": [
				{
					"name": "array of city climate info objects",
					"originalRequest": {
						"method": "GET",
						"header": [],
						"url": {
							"raw": "{{baseUrl}}/cities",
							"host": [
								"{{baseUrl}}"
							],
							"path": [
								"cities"
							]
						}
					},
					"status": "OK",
					"code": 200,
					"_postman_previewlanguage": "json",
					"header": [
						{
							"key": "Content-Type",
							"value": "application/json"
						}
					],
					"cookie": [],
					"body": "[\n {\n  \"cityID\": \"<string>\",\n  \"name\": \"<string>\",\n  \"AQI\": \"<integer>\",\n  \"CO2_per_capita\": \"<float>\",\n  \"GGE\": \"<float>\",\n  \"climate_description\": \"<string>\",\n  \"country\": \"<integer>\",\n  \"elevation\": \"<float>\",\n  \"isRisingSea\": \"<boolean>\",\n  \"percentgreenness\": \"<float>\",\n  \"pm25\": \"<float>\",\n  \"population\": \"<integer>\",\n  \"precipitation_2014_mm\": \"<float>\",\n  \"total_builtup_area\": \"<float>\",\n  \"un_development_group\": \"<string>\"\n },\n {\n  \"cityID\": \"<string>\",\n  \"name\": \"<string>\",\n  \"AQI\": \"<integer>\",\n  \"CO2_per_capita\": \"<float>\",\n  \"GGE\": \"<float>\",\n  \"climate_description\": \"<string>\",\n  \"country\": \"<integer>\",\n  \"elevation\": \"<float>\",\n  \"isRisingSea\": \"<boolean>\",\n  \"percentgreenness\": \"<float>\",\n  \"pm25\": \"<float>\",\n  \"population\": \"<integer>\",\n  \"precipitation_2014_mm\": \"<float>\",\n  \"total_builtup_area\": \"<float>\",\n  \"un_development_group\": \"<string>\"\n }\n]"
				},
				{
					"name": "unexpected error",
					"originalRequest": {
						"method": "GET",
						"header": [],
						"url": {
							"raw": "{{baseUrl}}/cities",
							"host": [
								"{{baseUrl}}"
							],
							"path": [
								"cities"
							]
						}
					},
					"status": "Internal Server Error",
					"code": 500,
					"_postman_previewlanguage": "json",
					"header": [
						{
							"key": "Content-Type",
							"value": "application/json"
						}
					],
					"cookie": [],
					"body": "{\n \"code\": \"<integer>\",\n \"message\": \"<string>\"\n}"
				}
			]
		},
		{
			"name": "get single stat",
			"event": [
				{
					"listen": "test",
					"script": {
						"id": "f796061d-ad03-454d-b4b2-ea538e513292",
						"exec": [
							"pm.test(\"Test1\", function () {",
							"    ",
							"    pm.response.to.have.status(200);",
							"    pm.response.to.have.jsonBody()",
							"    pm.expect(pm.response.responseTime).to.be.below(500);",
							"    ",
							"});"
						],
						"type": "text/javascript"
					}
				}
			],
			"request": {
				"auth": {
					"type": "noauth"
				},
				"method": "GET",
				"header": [],
				"url": {
					"raw": "{{baseUrl}}/stat?statID=0",
					"host": [
						"{{baseUrl}}"
					],
					"path": [
						"stat"
					],
					"query": [
						{
							"key": "statID",
							"value": "0"
						}
					]
				}
			},
			"response": [
				{
					"name": "A stat object for some a given metric (co2 emmissions, etc)",
					"originalRequest": {
						"method": "GET",
						"header": [],
						"url": {
							"raw": "{{baseUrl}}/stat?statID=<string>",
							"host": [
								"{{baseUrl}}"
							],
							"path": [
								"stat"
							],
							"query": [
								{
									"key": "statID",
									"value": "<string>"
								}
							]
						}
					},
					"status": "OK",
					"code": 200,
					"_postman_previewlanguage": "json",
					"header": [
						{
							"key": "Content-Type",
							"value": "application/json"
						}
					],
					"cookie": [],
					"body": "{\n \"statID\": \"<string>\",\n \"name\": \"<string>\",\n \"isCountry\": \"<boolean>\",\n \"high\": {\n  \"name\": \"<string>\",\n  \"id\": \"<integer>\",\n  \"value\": \"<float>\"\n },\n \"low\": {\n  \"name\": \"<string>\",\n  \"id\": \"<integer>\",\n  \"value\": \"<float>\"\n },\n \"median\": \"<number>\",\n \"mean\": \"<number>\",\n \"q1\": \"<number>\",\n \"q3\": \"<number>\",\n \"stdDev\": \"<number>\",\n \"numSamples\": \"<integer>\",\n \"pop\": \"<integer>\"\n}"
				},
				{
					"name": "unexpected error",
					"originalRequest": {
						"method": "GET",
						"header": [],
						"url": {
							"raw": "{{baseUrl}}/stat?statID=<string>",
							"host": [
								"{{baseUrl}}"
							],
							"path": [
								"stat"
							],
							"query": [
								{
									"key": "statID",
									"value": "<string>"
								}
							]
						}
					},
					"status": "Internal Server Error",
					"code": 500,
					"_postman_previewlanguage": "json",
					"header": [
						{
							"key": "Content-Type",
							"value": "application/json"
						}
					],
					"cookie": [],
					"body": "{\n \"code\": \"<integer>\",\n \"message\": \"<string>\"\n}"
				}
			]
		},
		{
			"name": "get all stats",
			"event": [
				{
					"listen": "test",
					"script": {
						"id": "f9545b10-4cd1-434e-95e6-90e0b54c0ef1",
						"exec": [
							"pm.test(\"Test1\", function () {",
							"    ",
							"    pm.response.to.have.status(200);",
							"    pm.response.to.have.jsonBody();",
							"    ",
							"    ",
							"});"
						],
						"type": "text/javascript"
					}
				}
			],
			"request": {
				"auth": {
					"type": "noauth"
				},
				"method": "GET",
				"header": [],
				"url": {
					"raw": "{{baseUrl}}/stats",
					"host": [
						"{{baseUrl}}"
					],
					"path": [
						"stats"
					]
				}
			},
			"response": [
				{
					"name": "unexpected error",
					"originalRequest": {
						"method": "GET",
						"header": [],
						"url": {
							"raw": "{{baseUrl}}/stats",
							"host": [
								"{{baseUrl}}"
							],
							"path": [
								"stats"
							]
						}
					},
					"status": "Internal Server Error",
					"code": 500,
					"_postman_previewlanguage": "json",
					"header": [
						{
							"key": "Content-Type",
							"value": "application/json"
						}
					],
					"cookie": [],
					"body": "{\n \"code\": \"<integer>\",\n \"message\": \"<string>\"\n}"
				},
				{
					"name": "All stat object for all metrics",
					"originalRequest": {
						"method": "GET",
						"header": [],
						"url": {
							"raw": "{{baseUrl}}/stats",
							"host": [
								"{{baseUrl}}"
							],
							"path": [
								"stats"
							]
						}
					},
					"status": "OK",
					"code": 200,
					"_postman_previewlanguage": "json",
					"header": [
						{
							"key": "Content-Type",
							"value": "application/json"
						}
					],
					"cookie": [],
					"body": "[\n {\n  \"statID\": \"<string>\",\n  \"name\": \"<string>\",\n  \"isCountry\": \"<boolean>\",\n  \"high\": {\n   \"name\": \"<string>\",\n   \"id\": \"<integer>\",\n   \"value\": \"<float>\"\n  },\n  \"low\": {\n   \"name\": \"<string>\",\n   \"id\": \"<integer>\",\n   \"value\": \"<float>\"\n  },\n  \"median\": \"<number>\",\n  \"mean\": \"<number>\",\n  \"q1\": \"<number>\",\n  \"q3\": \"<number>\",\n  \"stdDev\": \"<number>\",\n  \"numSamples\": \"<integer>\",\n  \"pop\": \"<integer>\"\n },\n {\n  \"statID\": \"<string>\",\n  \"name\": \"<string>\",\n  \"isCountry\": \"<boolean>\",\n  \"high\": {\n   \"name\": \"<string>\",\n   \"id\": \"<integer>\",\n   \"value\": \"<float>\"\n  },\n  \"low\": {\n   \"name\": \"<string>\",\n   \"id\": \"<integer>\",\n   \"value\": \"<float>\"\n  },\n  \"median\": \"<number>\",\n  \"mean\": \"<number>\",\n  \"q1\": \"<number>\",\n  \"q3\": \"<number>\",\n  \"stdDev\": \"<number>\",\n  \"numSamples\": \"<integer>\",\n  \"pop\": \"<integer>\"\n }\n]"
				}
			]
		},
		{
			"name": "get country climate info Copy",
			"event": [
				{
					"listen": "test",
					"script": {
						"id": "650e8096-9084-4c1f-956e-0bab838b3bde",
						"exec": [
							"pm.test(\"Test1\", function () {",
							"    ",
							"    pm.response.to.have.status(200);",
							"    pm.response.to.have.jsonBody();",
							"    pm.expect(pm.response.responseTime).to.be.below(500);",
							"    ",
							"    ",
							"});"
						],
						"type": "text/javascript"
					}
				}
			],
			"request": {
				"auth": {
					"type": "noauth"
				},
				"method": "GET",
				"header": [],
				"url": {
					"raw": "{{baseUrl}}/country?countryID=88",
					"host": [
						"{{baseUrl}}"
					],
					"path": [
						"country"
					],
					"query": [
						{
							"key": "countryID",
							"value": "88",
							"description": "country to search for"
						}
					]
				}
			},
			"response": [
				{
					"name": "unexpected error",
					"originalRequest": {
						"method": "GET",
						"header": [],
						"url": {
							"raw": "{{baseUrl}}/country?countryID=<string>",
							"host": [
								"{{baseUrl}}"
							],
							"path": [
								"country"
							],
							"query": [
								{
									"key": "countryID",
									"value": "<string>"
								}
							]
						}
					},
					"status": "Internal Server Error",
					"code": 500,
					"_postman_previewlanguage": "json",
					"header": [
						{
							"key": "Content-Type",
							"value": "application/json"
						}
					],
					"cookie": [],
					"body": "{\n \"code\": \"<integer>\",\n \"message\": \"<string>\"\n}"
				},
				{
					"name": "Get country climate info",
					"originalRequest": {
						"method": "GET",
						"header": [],
						"url": {
							"raw": "{{baseUrl}}/country?countryID=<string>",
							"host": [
								"{{baseUrl}}"
							],
							"path": [
								"country"
							],
							"query": [
								{
									"key": "countryID",
									"value": "<string>"
								}
							]
						}
					},
					"status": "OK",
					"code": 200,
					"_postman_previewlanguage": "json",
					"header": [
						{
							"key": "Content-Type",
							"value": "application/json"
						}
					],
					"cookie": [],
					"body": "{\n \"GDP\": \"<number>\",\n \"GDPCapita\": \"<number>\",\n \"GGE\": \"<number>\",\n \"HDI\": \"<number>\",\n \"avgLifespan\": \"<number>\",\n \"continent\": \"<string>\",\n \"countryID\": \"<integer>\",\n \"emissionsCapita\": \"<number>\",\n \"emmissionsGDP\": \"<number>\",\n \"hasSignedPCA\": \"<boolean>\",\n \"name\": \"<string>\",\n \"percentRenewable\": \"<number>\",\n \"population\": \"<integer>\"\n}"
				}
			]
		},
		{
			"name": "get city climate info Copy",
			"event": [
				{
					"listen": "test",
					"script": {
						"id": "f49435f9-05ad-4a4e-a0fd-e09546de9a9e",
						"exec": [
							"pm.test(\"Test1\", function () {",
							"    ",
							"    pm.response.to.have.status(200);",
							"    pm.response.to.have.jsonBody();",
							"    pm.expect(pm.response.responseTime).to.be.below(500);",
							"    ",
							"});"
						],
						"type": "text/javascript"
					}
				}
			],
			"request": {
				"auth": {
					"type": "noauth"
				},
				"method": "GET",
				"header": [],
				"url": {
					"raw": "{{baseUrl}}/city?cityID=1",
					"host": [
						"{{baseUrl}}"
					],
					"path": [
						"city"
					],
					"query": [
						{
							"key": "cityID",
							"value": "1"
						}
					]
				}
			},
			"response": [
				{
					"name": "unexpected error",
					"originalRequest": {
						"method": "GET",
						"header": [],
						"url": {
							"raw": "{{baseUrl}}/city?cityID=<string>",
							"host": [
								"{{baseUrl}}"
							],
							"path": [
								"city"
							],
							"query": [
								{
									"key": "cityID",
									"value": "<string>"
								}
							]
						}
					},
					"status": "Internal Server Error",
					"code": 500,
					"_postman_previewlanguage": "json",
					"header": [
						{
							"key": "Content-Type",
							"value": "application/json"
						}
					],
					"cookie": [],
					"body": "{\n \"code\": \"<integer>\",\n \"message\": \"<string>\"\n}"
				},
				{
					"name": "City climate info object",
					"originalRequest": {
						"method": "GET",
						"header": [],
						"url": {
							"raw": "{{baseUrl}}/city?cityID=<string>",
							"host": [
								"{{baseUrl}}"
							],
							"path": [
								"city"
							],
							"query": [
								{
									"key": "cityID",
									"value": "<string>"
								}
							]
						}
					},
					"status": "OK",
					"code": 200,
					"_postman_previewlanguage": "json",
					"header": [
						{
							"key": "Content-Type",
							"value": "application/json"
						}
					],
					"cookie": [],
					"body": "{\n \"cityID\": \"<string>\",\n \"name\": \"<string>\",\n \"AQI\": \"<integer>\",\n \"CO2_per_capita\": \"<float>\",\n \"GGE\": \"<float>\",\n \"climate_description\": \"<string>\",\n \"country\": \"<integer>\",\n \"elevation\": \"<float>\",\n \"isRisingSea\": \"<boolean>\",\n \"percentgreenness\": \"<float>\",\n \"pm25\": \"<float>\",\n \"population\": \"<integer>\",\n \"precipitation_2014_mm\": \"<float>\",\n \"total_builtup_area\": \"<float>\",\n \"un_development_group\": \"<string>\"\n}"
				}
			]
		},
		{
			"name": "get single stat Copy",
			"event": [
				{
					"listen": "test",
					"script": {
						"id": "f796061d-ad03-454d-b4b2-ea538e513292",
						"exec": [
							"pm.test(\"Test1\", function () {",
							"    ",
							"    pm.response.to.have.status(200);",
							"    pm.response.to.have.jsonBody();",
							"    pm.expect(pm.response.responseTime).to.be.below(500);",
							"    ",
							"    ",
							"});"
						],
						"type": "text/javascript"
					}
				}
			],
			"request": {
				"auth": {
					"type": "noauth"
				},
				"method": "GET",
				"header": [],
				"url": {
					"raw": "{{baseUrl}}/stat?statID=2",
					"host": [
						"{{baseUrl}}"
					],
					"path": [
						"stat"
					],
					"query": [
						{
							"key": "statID",
							"value": "2"
						}
					]
				}
			},
			"response": [
				{
					"name": "unexpected error",
					"originalRequest": {
						"method": "GET",
						"header": [],
						"url": {
							"raw": "{{baseUrl}}/stat?statID=<string>",
							"host": [
								"{{baseUrl}}"
							],
							"path": [
								"stat"
							],
							"query": [
								{
									"key": "statID",
									"value": "<string>"
								}
							]
						}
					},
					"status": "Internal Server Error",
					"code": 500,
					"_postman_previewlanguage": "json",
					"header": [
						{
							"key": "Content-Type",
							"value": "application/json"
						}
					],
					"cookie": [],
					"body": "{\n \"code\": \"<integer>\",\n \"message\": \"<string>\"\n}"
				},
				{
					"name": "A stat object for some a given metric (co2 emmissions, etc)",
					"originalRequest": {
						"method": "GET",
						"header": [],
						"url": {
							"raw": "{{baseUrl}}/stat?statID=<string>",
							"host": [
								"{{baseUrl}}"
							],
							"path": [
								"stat"
							],
							"query": [
								{
									"key": "statID",
									"value": "<string>"
								}
							]
						}
					},
					"status": "OK",
					"code": 200,
					"_postman_previewlanguage": "json",
					"header": [
						{
							"key": "Content-Type",
							"value": "application/json"
						}
					],
					"cookie": [],
					"body": "{\n \"statID\": \"<string>\",\n \"name\": \"<string>\",\n \"isCountry\": \"<boolean>\",\n \"high\": {\n  \"name\": \"<string>\",\n  \"id\": \"<integer>\",\n  \"value\": \"<float>\"\n },\n \"low\": {\n  \"name\": \"<string>\",\n  \"id\": \"<integer>\",\n  \"value\": \"<float>\"\n },\n \"median\": \"<number>\",\n \"mean\": \"<number>\",\n \"q1\": \"<number>\",\n \"q3\": \"<number>\",\n \"stdDev\": \"<number>\",\n \"numSamples\": \"<integer>\",\n \"pop\": \"<integer>\"\n}"
				}
			]
		},
		{
			"name": "get all stats Copy",
			"event": [
				{
					"listen": "test",
					"script": {
						"id": "f9545b10-4cd1-434e-95e6-90e0b54c0ef1",
						"exec": [
							"pm.test(\"Test1\", function () {",
							"    ",
							"    pm.response.to.have.status(200);",
							"    pm.response.to.have.jsonBody()",
							"    ",
							"    ",
							"});"
						],
						"type": "text/javascript"
					}
				}
			],
			"request": {
				"auth": {
					"type": "noauth"
				},
				"method": "GET",
				"header": [],
				"url": {
					"raw": "{{baseUrl}}/stats",
					"host": [
						"{{baseUrl}}"
					],
					"path": [
						"stats"
					]
				}
			},
			"response": [
				{
					"name": "unexpected error",
					"originalRequest": {
						"method": "GET",
						"header": [],
						"url": {
							"raw": "{{baseUrl}}/stats",
							"host": [
								"{{baseUrl}}"
							],
							"path": [
								"stats"
							]
						}
					},
					"status": "Internal Server Error",
					"code": 500,
					"_postman_previewlanguage": "json",
					"header": [
						{
							"key": "Content-Type",
							"value": "application/json"
						}
					],
					"cookie": [],
					"body": "{\n \"code\": \"<integer>\",\n \"message\": \"<string>\"\n}"
				},
				{
					"name": "All stat object for all metrics",
					"originalRequest": {
						"method": "GET",
						"header": [],
						"url": {
							"raw": "{{baseUrl}}/stats",
							"host": [
								"{{baseUrl}}"
							],
							"path": [
								"stats"
							]
						}
					},
					"status": "OK",
					"code": 200,
					"_postman_previewlanguage": "json",
					"header": [
						{
							"key": "Content-Type",
							"value": "application/json"
						}
					],
					"cookie": [],
					"body": "[\n {\n  \"statID\": \"<string>\",\n  \"name\": \"<string>\",\n  \"isCountry\": \"<boolean>\",\n  \"high\": {\n   \"name\": \"<string>\",\n   \"id\": \"<integer>\",\n   \"value\": \"<float>\"\n  },\n  \"low\": {\n   \"name\": \"<string>\",\n   \"id\": \"<integer>\",\n   \"value\": \"<float>\"\n  },\n  \"median\": \"<number>\",\n  \"mean\": \"<number>\",\n  \"q1\": \"<number>\",\n  \"q3\": \"<number>\",\n  \"stdDev\": \"<number>\",\n  \"numSamples\": \"<integer>\",\n  \"pop\": \"<integer>\"\n },\n {\n  \"statID\": \"<string>\",\n  \"name\": \"<string>\",\n  \"isCountry\": \"<boolean>\",\n  \"high\": {\n   \"name\": \"<string>\",\n   \"id\": \"<integer>\",\n   \"value\": \"<float>\"\n  },\n  \"low\": {\n   \"name\": \"<string>\",\n   \"id\": \"<integer>\",\n   \"value\": \"<float>\"\n  },\n  \"median\": \"<number>\",\n  \"mean\": \"<number>\",\n  \"q1\": \"<number>\",\n  \"q3\": \"<number>\",\n  \"stdDev\": \"<number>\",\n  \"numSamples\": \"<integer>\",\n  \"pop\": \"<integer>\"\n }\n]"
				}
			]
		}
	],
	"variable": [
		{
			"id": "baseUrl",
			"key": "baseUrl",
			"value": "http://api.climatebuddy.xyz",
			"type": "string"
		}
	],
	"protocolProfileBehavior": {}
}